…
homicides_condition = full_join(tibble_total, tibble_unsolved) %>% 
  replace(is.na(.), 0)
```

    ## Joining, by = "city_state"

``` r
homicides_condition
```

    ## # A tibble: 51 × 3
    ##    city_state     total_homicides unsolved_homicides
    ##    <chr>                    <int>              <int>
    ##  1 Albuquerque,NM             378                146
    ##  2 Atlanta,GA                 973                373
    ##  3 Baltimore,MD              2827               1825
    ##  4 Baton Rouge,LA             424                196
    ##  5 Birmingham,AL              800                347
    ##  6 Boston,MA                  614                310
    ##  7 Buffalo,NY                 521                319
    ##  8 Charlotte,NC               687                206
    ##  9 Chicago,IL                5535               4073
    ## 10 Cincinnati,OH              694                309
    ## # … with 41 more rows
…
Next, run the similar test for each of the cities in the dataset, and
extract both the proportion of unsolved homicides and the confidence
interval for each.

``` r
total_test = homicides_condition %>%
  mutate(prop_test = map2(.x = unsolved_homicides , .y = total_homicides , ~prop.test(x = .x,n = .y))) %>%
  mutate(prop_test = map(prop_test,broom::tidy)) %>%
  unnest(prop_test) %>%
  select(city_state, estimate, starts_with("conf."))
total_test
```

    ## # A tibble: 51 × 4
    ##    city_state     estimate conf.low conf.high
    ##    <chr>             <dbl>    <dbl>     <dbl>
    ##  1 Albuquerque,NM    0.386    0.337     0.438
    ##  2 Atlanta,GA        0.383    0.353     0.415
    ##  3 Baltimore,MD      0.646    0.628     0.663
    ##  4 Baton Rouge,LA    0.462    0.414     0.511
    ##  5 Birmingham,AL     0.434    0.399     0.469
    ##  6 Boston,MA         0.505    0.465     0.545
    ##  7 Buffalo,NY        0.612    0.569     0.654
    ##  8 Charlotte,NC      0.300    0.266     0.336
    ##  9 Chicago,IL        0.736    0.724     0.747
    ## 10 Cincinnati,OH     0.445    0.408     0.483
    ## # … with 41 more rows
…
sim_0 = vector("list", length = 100)

for (i in 1:5000) {
  sim_0[[i]] = simulation() %>% 
    broom::tidy() %>% 
    select(estimate, p.value)
}

bind_rows(sim_0)
```

    ## # A tibble: 5,000 × 2
    ##    estimate p.value
    ##       <dbl>   <dbl>
    ##  1  -0.544   0.576 
    ##  2  -1.78    0.0708
    ##  3  -0.530   0.504 
    ##  4   1.89    0.0395
    ##  5  -1.31    0.129 
    ##  6   0.0575  0.950 
    ##  7  -1.02    0.138 
    ##  8  -0.631   0.529 
    ##  9  -0.625   0.528 
    ## 10  -0.163   0.869 
    ## # … with 4,990 more rows
…
